\relax 
\providecommand\hyper@newdestlabel[2]{}
\providecommand\HyperFirstAtBeginDocument{\AtBeginDocument}
\HyperFirstAtBeginDocument{\ifx\hyper@anchor\@undefined
\global\let\oldcontentsline\contentsline
\gdef\contentsline#1#2#3#4{\oldcontentsline{#1}{#2}{#3}}
\global\let\oldnewlabel\newlabel
\gdef\newlabel#1#2{\newlabelxx{#1}#2}
\gdef\newlabelxx#1#2#3#4#5#6{\oldnewlabel{#1}{{#2}{#3}}}
\AtEndDocument{\ifx\hyper@anchor\@undefined
\let\contentsline\oldcontentsline
\let\newlabel\oldnewlabel
\fi}
\fi}
\global\let\hyper@last\relax 
\gdef\HyperFirstAtBeginDocument#1{#1}
\providecommand\HyField@AuxAddToFields[1]{}
\providecommand\HyField@AuxAddToCoFields[2]{}
\babel@aux{english}{}
\@writefile{@@@}{\chapterbegin }
\@writefile{toc}{\contentsline {chapter}{\numberline {1}Introduction}{1}{chapter.1}}
\@writefile{lof}{\addvspace {10\p@ }}
\@writefile{lot}{\addvspace {10\p@ }}
\@writefile{lof}{\contentsline {xchapter}{Introduction}{1}{chapter.1}}
\@writefile{lot}{\contentsline {xchapter}{Introduction}{1}{chapter.1}}
\@writefile{toc}{\contentsline {chapter}{\numberline {2}First step}{2}{chapter.2}}
\@writefile{lof}{\addvspace {10\p@ }}
\@writefile{lot}{\addvspace {10\p@ }}
\@writefile{lof}{\contentsline {xchapter}{First step}{2}{chapter.2}}
\@writefile{lot}{\contentsline {xchapter}{First step}{2}{chapter.2}}
\@writefile{toc}{\contentsline {section}{\numberline {2.1}A Powerful Mathematica Tools}{2}{section.2.1}}
\newlabel{equazione di campo}{{2.1}{2}{A Powerful Mathematica Tools}{equation.2.1.1}{}}
\newlabel{equazione di campo}{{2.2}{2}{A Powerful Mathematica Tools}{equation.2.1.2}{}}
\newlabel{lambdadef}{{2.3}{3}{A Powerful Mathematica Tools}{equation.2.1.3}{}}
\newlabel{kvslamba}{{2.4}{3}{A Powerful Mathematica Tools}{equation.2.1.4}{}}
\newlabel{elemento linea}{{2.5}{3}{A Powerful Mathematica Tools}{equation.2.1.5}{}}
\newlabel{metrica}{{2.6}{3}{A Powerful Mathematica Tools}{equation.2.1.6}{}}
\newlabel{pertg}{{2.7}{3}{A Powerful Mathematica Tools}{equation.2.1.7}{}}
\newlabel{pertT}{{2.8}{3}{A Powerful Mathematica Tools}{equation.2.1.8}{}}
\newlabel{perteq}{{2.9}{3}{A Powerful Mathematica Tools}{equation.2.1.9}{}}
\@writefile{toc}{\contentsline {section}{\numberline {2.2}ODE for H}{4}{section.2.2}}
\newlabel{startingpoint}{{2.12}{4}{ODE for H}{equation.2.2.12}{}}
\@writefile{toc}{\contentsline {subsection}{\numberline {2.2.1}Non diagonal component}{4}{subsection.2.2.1}}
\newlabel{kprimo}{{2.14}{4}{Non diagonal component}{equation.2.2.14}{}}
\@writefile{toc}{\contentsline {subsection}{\numberline {2.2.2}Diagonal component}{4}{subsection.2.2.2}}
\newlabel{deltap}{{2.17}{4}{Diagonal component}{equation.2.2.17}{}}
\newlabel{incipit}{{2.18}{4}{Diagonal component}{equation.2.2.18}{}}
\@writefile{toc}{\contentsline {subsection}{\numberline {2.2.3}Background constraint}{4}{subsection.2.2.3}}
\global\mtcsecondpartfalse
\@writefile{toc}{\contentsline {subsection}{\numberline {2.2.4}Form H(r) to $\lambda $ }{5}{subsection.2.2.4}}
\newlabel{forh}{{2.23}{5}{Form H(r) to $\lambda $}{equation.2.2.23}{}}
\newlabel{odeforH}{{2.24}{5}{Form H(r) to $\lambda $}{equation.2.2.24}{}}
