\relax 
\providecommand\hyper@newdestlabel[2]{}
\bbl@beforestart
\providecommand\HyperFirstAtBeginDocument{\AtBeginDocument}
\HyperFirstAtBeginDocument{\ifx\hyper@anchor\@undefined
\global\let\oldcontentsline\contentsline
\gdef\contentsline#1#2#3#4{\oldcontentsline{#1}{#2}{#3}}
\global\let\oldnewlabel\newlabel
\gdef\newlabel#1#2{\newlabelxx{#1}#2}
\gdef\newlabelxx#1#2#3#4#5#6{\oldnewlabel{#1}{{#2}{#3}}}
\AtEndDocument{\ifx\hyper@anchor\@undefined
\let\contentsline\oldcontentsline
\let\newlabel\oldnewlabel
\fi}
\fi}
\global\let\hyper@last\relax 
\gdef\HyperFirstAtBeginDocument#1{#1}
\providecommand\HyField@AuxAddToFields[1]{}
\providecommand\HyField@AuxAddToCoFields[2]{}
\babel@aux{english}{}
\citation{[GW1]}
\citation{[GW3]}
\citation{Fattoyev:2017jql,Kumar:2019xgp}
\citation{FlanaganHinderer}
\citation{[fatpulsar]}
\citation{[universal]}
\citation{[Ein01]}
\citation{[Dyson01]}
\citation{[Pulsar]}
\citation{GW150914}
\citation{AdvLIGO,AdvVirgo}
\citation{[GW1]}
\citation{[GRB1]}
\citation{[GRB1],[GRB2]}
\citation{[multymess]}
\@writefile{toc}{\contentsline {chapter}{Introduction}{2}{chapter*.2}\protected@file@percent }
\citation{[GW1],[eos01]}
\citation{[GW3_13]}
\citation{FlanaganHinderer}
\citation{[GW1],[GW3]}
\citation{Fattoyev:2017jql,Kumar:2019xgp}
\citation{[fatpulsar]}
\citation{[pani01]}
\citation{[pani01],[bosonstar01],[bosonstar02]}
\citation{[bosonstar02]}
\citation{[axionstar]}
\citation{[darkstar01]}
\citation{[darkstar02]}
\citation{[grava01],[grava02]}
\citation{FlanaganHinderer,[Hinderer]}
\citation{[universal]}
\citation{Rosswog:2007zz}
\citation{[PP]}
\citation{[PP]}
\citation{[CNO]}
\citation{[CNO]}
\@writefile{toc}{\contentsline {chapter}{\numberline {1}Neutron Stars}{6}{chapter.1}\protected@file@percent }
\@writefile{lof}{\addvspace {10\p@ }}
\@writefile{lot}{\addvspace {10\p@ }}
\newlabel{NSs}{{1}{6}{Neutron Stars}{chapter.1}{}}
\@writefile{lof}{\contentsline {figure}{\numberline {1.1}{\ignorespaces A representation of the PP-chain reaction. Image from \cite  {[PP]} \relax }}{7}{figure.caption.3}\protected@file@percent }
\providecommand*\caption@xref[2]{\@setref\relax\@undefined{#1}}
\newlabel{fig : PP}{{1.1}{7}{A representation of the PP-chain reaction. Image from \cite {[PP]} \relax }{figure.caption.3}{}}
\@writefile{lof}{\contentsline {figure}{\numberline {1.2}{\ignorespaces A representation of the CNO cycle. Image from \cite  {[CNO]} \relax }}{7}{figure.caption.3}\protected@file@percent }
\newlabel{fig : CNO}{{1.2}{7}{A representation of the CNO cycle. Image from \cite {[CNO]} \relax }{figure.caption.3}{}}
\citation{[struttura]}
\citation{[struttura]}
\@writefile{lof}{\contentsline {figure}{\numberline {1.3}{\ignorespaces  A raw representation of a neutron star structure. Here the radius is measured in km. Image from \cite  {[struttura]} \relax }}{8}{figure.caption.4}\protected@file@percent }
\newlabel{fig : struttura}{{1.3}{8}{A raw representation of a neutron star structure. Here the radius is measured in km. Image from \cite {[struttura]} \relax }{figure.caption.4}{}}
\citation{[GW1]}
\citation{Binnington:2009bb}
\citation{[GW3]}
\@writefile{toc}{\contentsline {subsubsection}{Outer crust}{9}{section*.5}\protected@file@percent }
\@writefile{toc}{\contentsline {subsubsection}{Inner crust}{9}{section*.6}\protected@file@percent }
\@writefile{toc}{\contentsline {subsubsection}{The Core}{9}{section*.7}\protected@file@percent }
\@writefile{toc}{\contentsline {section}{\numberline {1.1}Studying Neutron Stars with Gravitational Waves}{9}{section.1.1}\protected@file@percent }
\citation{[Pulsar]}
\citation{[pulsar1]}
\citation{[Pulsar]}
\@writefile{toc}{\contentsline {subsection}{\numberline {1.1.1}Deriving the Wave Equation for Gravitational Waves}{10}{subsection.1.1.1}\protected@file@percent }
\newlabel{fieldeq}{{1.5}{10}{Deriving the Wave Equation for Gravitational Waves}{equation.1.1.5}{}}
\newlabel{Gdef}{{1.6}{10}{Deriving the Wave Equation for Gravitational Waves}{equation.1.1.6}{}}
\newlabel{fromRtoT}{{1.12}{11}{Deriving the Wave Equation for Gravitational Waves}{equation.1.1.12}{}}
\newlabel{field2}{{1.13}{11}{Deriving the Wave Equation for Gravitational Waves}{equation.1.1.13}{}}
\newlabel{riccitoaffine}{{1.14}{11}{Deriving the Wave Equation for Gravitational Waves}{equation.1.1.14}{}}
\newlabel{christoffel}{{1.15}{11}{Deriving the Wave Equation for Gravitational Waves}{equation.1.1.15}{}}
\newlabel{affineforg}{{1.16}{11}{Deriving the Wave Equation for Gravitational Waves}{equation.1.1.16}{}}
\newlabel{riccih}{{1.17}{12}{Deriving the Wave Equation for Gravitational Waves}{equation.1.1.17}{}}
\newlabel{affineflat}{{1.18}{12}{Deriving the Wave Equation for Gravitational Waves}{equation.1.1.18}{}}
\newlabel{hwave}{{1.19}{12}{Deriving the Wave Equation for Gravitational Waves}{equation.1.1.19}{}}
\newlabel{harmonic}{{1.20}{12}{Deriving the Wave Equation for Gravitational Waves}{equation.1.1.20}{}}
\newlabel{harmonicresult}{{1.22}{12}{Deriving the Wave Equation for Gravitational Waves}{equation.1.1.22}{}}
\newlabel{wavesistem}{{1.23}{13}{Deriving the Wave Equation for Gravitational Waves}{equation.1.1.23}{}}
\newlabel{wave}{{1.25}{13}{Deriving the Wave Equation for Gravitational Waves}{equation.1.1.25}{}}
\newlabel{voidwave}{{1.26}{13}{Deriving the Wave Equation for Gravitational Waves}{equation.1.1.26}{}}
\newlabel{planewave}{{1.27}{13}{Deriving the Wave Equation for Gravitational Waves}{equation.1.1.27}{}}
\citation{[Hinderer]}
\@writefile{toc}{\contentsline {section}{\numberline {1.2}Equilibrium and Tidal Deformability of Isotropic Neutron Stars}{14}{section.1.2}\protected@file@percent }
\newlabel{sec:Iso-NSs}{{1.2}{14}{Equilibrium and Tidal Deformability of Isotropic Neutron Stars}{section.1.2}{}}
\@writefile{toc}{\contentsline {subsection}{\numberline {1.2.1}Inside the star }{14}{subsection.1.2.1}\protected@file@percent }
\newlabel{equazione di campo}{{1.30}{14}{Inside the star}{equation.1.2.30}{}}
\newlabel{elemento linea}{{1.31}{14}{Inside the star}{equation.1.2.31}{}}
\newlabel{metrica}{{1.32}{14}{Inside the star}{equation.1.2.32}{}}
\newlabel{pertg}{{1.33}{14}{Inside the star}{equation.1.2.33}{}}
\newlabel{pertT}{{1.34}{14}{Inside the star}{equation.1.2.34}{}}
\newlabel{perteq}{{1.35}{14}{Inside the star}{equation.1.2.35}{}}
\newlabel{startingpoint}{{1.36}{15}{Inside the star}{equation.1.2.36}{}}
\@writefile{toc}{\contentsline {subsubsection}{Non-diagonal components}{15}{section*.8}\protected@file@percent }
\newlabel{kprimo}{{1.39}{15}{Non-diagonal components}{equation.1.2.39}{}}
\@writefile{toc}{\contentsline {subsubsection}{Diagonal components}{15}{section*.9}\protected@file@percent }
\newlabel{deltap}{{1.43}{15}{Diagonal components}{equation.1.2.43}{}}
\newlabel{forh}{{1.48}{15}{Diagonal components}{equation.1.2.48}{}}
\citation{[Tolman],[Opp]}
\citation{[Opp]}
\newlabel{odeforH}{{1.49}{16}{Diagonal components}{equation.1.2.49}{}}
\newlabel{hsystem}{{1.50}{16}{Diagonal components}{equation.1.2.50}{}}
\@writefile{toc}{\contentsline {subsubsection}{Background Equations}{16}{section*.10}\protected@file@percent }
\newlabel{T}{{1.51}{16}{Background Equations}{equation.1.2.51}{}}
\newlabel{bakline}{{1.52}{16}{Background Equations}{equation.1.2.52}{}}
\newlabel{isoG00}{{1.53}{17}{Background Equations}{equation.1.2.53}{}}
\newlabel{drlambda}{{1.54}{17}{Background Equations}{equation.1.2.54}{}}
\newlabel{isoE00}{{1.55}{17}{Background Equations}{equation.1.2.55}{}}
\newlabel{mprime}{{1.56}{17}{Background Equations}{equation.1.2.56}{}}
\newlabel{mdir}{{1.59}{17}{Background Equations}{equation.1.2.59}{}}
\newlabel{isoE11}{{1.60}{17}{Background Equations}{equation.1.2.60}{}}
\newlabel{phiprime}{{1.64}{17}{Background Equations}{equation.1.2.64}{}}
\newlabel{covoft}{{1.66}{18}{Background Equations}{equation.1.2.66}{}}
\newlabel{pder}{{1.67}{18}{Background Equations}{equation.1.2.67}{}}
\@writefile{toc}{\contentsline {subsection}{\numberline {1.2.2}Stellar Exterior}{18}{subsection.1.2.2}\protected@file@percent }
\newlabel{out}{{1.2.2}{18}{Stellar Exterior}{subsection.1.2.2}{}}
\newlabel{hqp}{{1.70}{18}{Stellar Exterior}{equation.1.2.70}{}}
\newlabel{legP}{{1.71}{18}{Stellar Exterior}{equation.1.2.71}{}}
\newlabel{legQ}{{1.72}{18}{Stellar Exterior}{equation.1.2.72}{}}
\citation{[Hinderer2]}
\newlabel{hlimit}{{1.74}{19}{Stellar Exterior}{equation.1.2.74}{}}
\newlabel{lambdadef}{{1.75}{19}{Stellar Exterior}{equation.1.2.75}{}}
\newlabel{kvslamba}{{1.76}{19}{Stellar Exterior}{equation.1.2.76}{}}
\newlabel{geodesis}{{1.77}{19}{Stellar Exterior}{equation.1.2.77}{}}
\citation{[Hinderer]}
\newlabel{firstassum}{{1.78}{20}{Stellar Exterior}{equation.1.2.78}{}}
\newlabel{geoweak}{{1.82}{20}{Stellar Exterior}{equation.1.2.82}{}}
\newlabel{flatexp}{{1.85}{20}{Stellar Exterior}{equation.1.2.85}{}}
\newlabel{defq}{{1.86}{20}{Stellar Exterior}{equation.1.2.86}{}}
\citation{[Bose]}
\citation{[Bose]}
\citation{[Bose17],[Bose10],[Bose12],[Bose13]}
\citation{[Bose13]}
\citation{[Bose14]}
\citation{[Bose14]}
\newlabel{defeps}{{1.87}{21}{Stellar Exterior}{equation.1.2.87}{}}
\newlabel{coeff}{{1.88}{21}{Stellar Exterior}{equation.1.2.88}{}}
\newlabel{k2}{{1.89}{21}{Stellar Exterior}{equation.1.2.89}{}}
\@writefile{toc}{\contentsline {section}{\numberline {1.3}The anisotropic case}{21}{section.1.3}\protected@file@percent }
\newlabel{sectionaniso}{{1.3}{21}{The anisotropic case}{section.1.3}{}}
\citation{[Bose12]}
\citation{[Bose12]}
\citation{[Bose22]}
\citation{[Bose17]}
\citation{[Bose]}
\citation{[Bose]}
\newlabel{anisot}{{1.90}{22}{The anisotropic case}{equation.1.3.90}{}}
\@writefile{toc}{\contentsline {subsection}{\numberline {1.3.1}Static equilibrium of anisotropic neutron stars}{22}{subsection.1.3.1}\protected@file@percent }
\citation{[Bose22]}
\citation{[Bose]}
\citation{[Bose22]}
\citation{[Bose22]}
\citation{[Bose]}
\citation{[Bose]}
\citation{[Bose]}
\newlabel{anisophi}{{1.91}{23}{Static equilibrium of anisotropic neutron stars}{equation.1.3.91}{}}
\newlabel{anisopprime}{{1.94}{23}{Static equilibrium of anisotropic neutron stars}{equation.1.3.94}{}}
\newlabel{pt}{{1.95}{23}{Static equilibrium of anisotropic neutron stars}{equation.1.3.95}{}}
\@writefile{toc}{\contentsline {subsection}{\numberline {1.3.2}A new ODE for the metric perturbation H(r)}{24}{subsection.1.3.2}\protected@file@percent }
\newlabel{sound}{{1.96}{24}{A new ODE for the metric perturbation H(r)}{equation.1.3.96}{}}
\newlabel{A}{{1.97}{24}{A new ODE for the metric perturbation H(r)}{equation.1.3.97}{}}
\newlabel{pofpt}{{1.98}{24}{A new ODE for the metric perturbation H(r)}{equation.1.3.98}{}}
\newlabel{epsilonofp}{{1.99}{24}{A new ODE for the metric perturbation H(r)}{equation.1.3.99}{}}
\newlabel{preH}{{1.102}{24}{A new ODE for the metric perturbation H(r)}{equation.1.3.102}{}}
\newlabel{hconmet}{{1.103}{25}{A new ODE for the metric perturbation H(r)}{equation.1.3.103}{}}
\newlabel{anisoh}{{1.104}{25}{A new ODE for the metric perturbation H(r)}{equation.1.3.104}{}}
\@writefile{toc}{\contentsline {chapter}{\numberline {2}Dark Matter}{26}{chapter.2}\protected@file@percent }
\@writefile{lof}{\addvspace {10\p@ }}
\@writefile{lot}{\addvspace {10\p@ }}
\newlabel{ChapterDM}{{2}{26}{Dark Matter}{chapter.2}{}}
\citation{[Ford],[Freeman]}
\citation{[Curva]}
\citation{[Curva]}
\@writefile{toc}{\contentsline {subsubsection}{Rotation Curves of Galaxies}{27}{section*.11}\protected@file@percent }
\@writefile{lof}{\contentsline {figure}{\numberline {2.1}{\ignorespaces Galactic rotation curve for NGC 6503 showing disk and gas contributions as well as the dark matter halo contribution needed to match the data\cite  {[Curva]}. \relax }}{27}{figure.caption.12}\protected@file@percent }
\newlabel{fig : Curva}{{2.1}{27}{Galactic rotation curve for NGC 6503 showing disk and gas contributions as well as the dark matter halo contribution needed to match the data\cite {[Curva]}. \relax }{figure.caption.12}{}}
\citation{[Coma00]}
\citation{[Bullet00],[Bullet02]}
\citation{[Bullet02-00]}
\citation{[Bullet00]}
\citation{[Bullet00]}
\@writefile{toc}{\contentsline {subsubsection}{Hot Gas Confinment}{28}{section*.13}\protected@file@percent }
\@writefile{toc}{\contentsline {subsubsection}{Bullet Cluster}{28}{section*.14}\protected@file@percent }
\citation{[Bullet00],[Bullet02]}
\citation{[Bullet02]}
\citation{[Bullet02]}
\newlabel{fig : VisibleB}{{\caption@xref {fig : VisibleB}{ on input line 813}}{29}{Bullet Cluster}{figure.caption.15}{}}
\newlabel{fig : XrayB}{{\caption@xref {fig : XrayB}{ on input line 818}}{29}{Bullet Cluster}{figure.caption.15}{}}
\@writefile{lof}{\contentsline {figure}{\numberline {2.2}{\ignorespaces In the left panel is a color image from Magellan images of $1E0657-558$. The white bar is a $200\tmspace  +\thinmuskip {.1667em} \rm  {kpc}$ reference. The right panel show the same cluster, but in the $X$-ray domain, from Chandra observations. In both images, the green contours represent the weak lensing reconstruction of the gravitational potential \cite  {[Bullet00]}\relax }}{29}{figure.caption.15}\protected@file@percent }
\newlabel{prob}{{2.3}{29}{Bullet Cluster}{equation.2.0.3}{}}
\newlabel{bound}{{2.8}{30}{Bullet Cluster}{equation.2.0.8}{}}
\citation{[macho00],[macho01]}
\citation{[macho00]}
\citation{[macho00]}
\@writefile{toc}{\contentsline {section}{\numberline {2.1}How Dark Matter is Introduced}{31}{section.2.1}\protected@file@percent }
\newlabel{introDM}{{2.1}{31}{How Dark Matter is Introduced}{section.2.1}{}}
\@writefile{toc}{\contentsline {subsection}{\numberline {2.1.1}MACHOs}{31}{subsection.2.1.1}\protected@file@percent }
\citation{[wimp00]}
\@writefile{toc}{\contentsline {subsection}{\numberline {2.1.2}WIMPs}{32}{subsection.2.1.2}\protected@file@percent }
\newlabel{boltzmann}{{2.13}{32}{WIMPs}{equation.2.1.13}{}}
\citation{[susy00],[susy01]}
\@writefile{toc}{\contentsline {subsubsection}{SUSY}{33}{section*.16}\protected@file@percent }
\citation{[axion00]}
\citation{[axion00]}
\citation{[MDM00],[MDM01]}
\citation{[LeeYang]}
\@writefile{toc}{\contentsline {subsubsection}{Axions}{34}{section*.17}\protected@file@percent }
\newlabel{axion}{{2.1.2}{34}{Axions}{section*.17}{}}
\@writefile{toc}{\contentsline {section}{\numberline {2.2}Mirror Dark Matter, cosmology and structure}{34}{section.2.2}\protected@file@percent }
\newlabel{Result}{{2.2}{34}{Mirror Dark Matter, cosmology and structure}{section.2.2}{}}
\citation{[Temp00],[Temp01]}
\citation{[Temp00],[Temp01]}
\citation{[MDM00],[MDM01],[bambi]}
\@writefile{toc}{\contentsline {subsection}{\numberline {2.2.1}Early Universe and Big Bang Nucleosynthesis}{35}{subsection.2.2.1}\protected@file@percent }
\citation{[Temp00],[Temp01],[Temp02]}
\citation{[MDM00],[MDM01]}
\newlabel{probdist}{{2.19}{36}{Early Universe and Big Bang Nucleosynthesis}{equation.2.2.19}{}}
\citation{[infla00]}
\citation{[MDM00],[MDM01]}
\@writefile{toc}{\contentsline {subsection}{\numberline {2.2.2}Galaxy Structure}{37}{subsection.2.2.2}\protected@file@percent }
\citation{[MDM00]}
\citation{[foot00226]}
\citation{[foot00226]}
\citation{[bachall]}
\citation{[foot00226]}
\citation{[foot00226]}
\citation{[foot00226]}
\citation{[foot00226]}
\@writefile{toc}{\contentsline {subsection}{\numberline {2.2.3}Another Point of View}{39}{subsection.2.2.3}\protected@file@percent }
\newlabel{MDM}{{2.2.3}{39}{Another Point of View}{subsection.2.2.3}{}}
\citation{[MDM00],[MDM01],[Temp01],[CMB00]}
\citation{[MDM01]}
\citation{[CMB00]}
\@writefile{lof}{\contentsline {figure}{\numberline {2.3}{\ignorespaces Cumulative mass-to-light ratio $M/L_i$ for several values of $N_{200}$, with and without the contribution of the brightest central galaxy (BCG) luminosity. Dashed lines relate to the data with the BCG, while solid line refers to $M/L$ without the BCG \cite  {[foot00226]}. \relax }}{40}{figure.caption.18}\protected@file@percent }
\newlabel{flatml01}{{2.3}{40}{Cumulative mass-to-light ratio $M/L_i$ for several values of $N_{200}$, with and without the contribution of the brightest central galaxy (BCG) luminosity. Dashed lines relate to the data with the BCG, while solid line refers to $M/L$ without the BCG \cite {[foot00226]}. \relax }{figure.caption.18}{}}
\@writefile{lof}{\contentsline {figure}{\numberline {2.4}{\ignorespaces Cumulative mass-to-light ratio $M/L_i$ for several values of $N_{200}$ outside the central region, without the contribution BCG luminosity and mass \cite  {[foot00226]}. \relax }}{40}{figure.caption.19}\protected@file@percent }
\newlabel{flatml02}{{2.4}{40}{Cumulative mass-to-light ratio $M/L_i$ for several values of $N_{200}$ outside the central region, without the contribution BCG luminosity and mass \cite {[foot00226]}. \relax }{figure.caption.19}{}}
\citation{[CMB00],[MDM01]}
\citation{[WMAP],[ACBAR],[2dF]}
\citation{[MDM01]}
\citation{[MDM01]}
\citation{[MDM01]}
\citation{[MDM01]}
\citation{[foot00226]}
\citation{[bondihoyle00],[bondihoyle01]}
\citation{[MDMstar01]}
\citation{[bondihoyle01]}
\citation{[bondihoyle01]}
\citation{[bondihoyle01]}
\@writefile{lof}{\contentsline {figure}{\numberline {2.5}{\ignorespaces CMB power spectra for various mirror models with different $x=T'/T$. On the y-axis is the contribution of the $l-th$ multipole mode in $\mu K$ and on the x-axis the $l$ number.\cite  {[MDM01]} \relax }}{42}{figure.caption.20}\protected@file@percent }
\newlabel{CMB}{{2.5}{42}{CMB power spectra for various mirror models with different $x=T'/T$. On the y-axis is the contribution of the $l-th$ multipole mode in $\mu K$ and on the x-axis the $l$ number.\cite {[MDM01]} \relax }{figure.caption.20}{}}
\@writefile{lof}{\contentsline {figure}{\numberline {2.6}{\ignorespaces LSS power spectra for several mirror models with different $x=T'/T$. On the y-axis we display the value of $P(k)$ rescaled with the Hubble parameter and on the x-axis the wave number $k$ rescaled by $h$ \cite  {[MDM01]}. \relax }}{42}{figure.caption.21}\protected@file@percent }
\newlabel{power}{{2.6}{42}{LSS power spectra for several mirror models with different $x=T'/T$. On the y-axis we display the value of $P(k)$ rescaled with the Hubble parameter and on the x-axis the wave number $k$ rescaled by $h$ \cite {[MDM01]}. \relax }{figure.caption.21}{}}
\@writefile{toc}{\contentsline {subsection}{\numberline {2.2.4}Accretion of Mirror Dark Matter}{43}{subsection.2.2.4}\protected@file@percent }
\newlabel{accretion}{{2.2.4}{43}{Accretion of Mirror Dark Matter}{subsection.2.2.4}{}}
\@writefile{lof}{\contentsline {figure}{\numberline {2.7}{\ignorespaces A schematic of the Holye-Lyttleton process, image from \cite  {[bondihoyle01]}. The black circle represent the star, the curved line represent a flux tube of gas. In this case, the star is at rest and the gas is moving. \relax }}{43}{figure.caption.22}\protected@file@percent }
\newlabel{BH}{{2.7}{43}{A schematic of the Holye-Lyttleton process, image from \cite {[bondihoyle01]}. The black circle represent the star, the curved line represent a flux tube of gas. In this case, the star is at rest and the gas is moving. \relax }{figure.caption.22}{}}
\newlabel{oraria}{{2.34}{43}{Accretion of Mirror Dark Matter}{equation.2.2.34}{}}
\newlabel{consangolare}{{2.35}{43}{Accretion of Mirror Dark Matter}{equation.2.2.35}{}}
\citation{[bondihoyle00]}
\newlabel{orariau}{{2.38}{44}{Accretion of Mirror Dark Matter}{equation.2.2.38}{}}
\newlabel{soluzioneu}{{2.40}{44}{Accretion of Mirror Dark Matter}{equation.2.2.40}{}}
\newlabel{HL}{{2.44}{44}{Accretion of Mirror Dark Matter}{equation.2.2.44}{}}
\citation{[MDMstar01]}
\citation{[MDMstar01]}
\citation{[acc00]}
\newlabel{Maxwell}{{2.48}{45}{Accretion of Mirror Dark Matter}{equation.2.2.48}{}}
\citation{SLypaper}
\citation{FPSpaper}
\citation{MS1paper}
\citation{[Hinderer]}
\citation{[GW1]}
\citation{[MassiveNS]}
\citation{[fatpulsar]}
\citation{[MassiveNS]}
\citation{[fatpulsar]}
\citation{[Hinderer]}
\@writefile{toc}{\contentsline {chapter}{\numberline {3}Tidal Deformability of Neutron Stars with a Dark Component or Pressure Anisotropy}{46}{chapter.3}\protected@file@percent }
\@writefile{lof}{\addvspace {10\p@ }}
\@writefile{lot}{\addvspace {10\p@ }}
\newlabel{results}{{3}{46}{Tidal Deformability of Neutron Stars with a Dark Component or Pressure Anisotropy}{chapter.3}{}}
\citation{[Hinderer]}
\citation{[Hinderer]}
\citation{[Hinderer]}
\citation{[Hinderer]}
\citation{[Hinderer]}
\citation{[Hinderer]}
\citation{[Hinderer]}
\citation{[Bose]}
\citation{[Bose]}
\citation{[Bose]}
\@writefile{lof}{\contentsline {figure}{\numberline {3.1}{\ignorespaces NS equilibrium sequences for the SLy, FPS and MS1 EoS. On the vertical axis we report the total mass in solar mass units, on the horizontal axis the radius in $\tmspace  +\thinmuskip {.1667em}\rm  {km}$. \relax }}{47}{figure.caption.23}\protected@file@percent }
\newlabel{allpure}{{3.1}{47}{NS equilibrium sequences for the SLy, FPS and MS1 EoS. On the vertical axis we report the total mass in solar mass units, on the horizontal axis the radius in $\,\rm {km}$. \relax }{figure.caption.23}{}}
\@writefile{lot}{\contentsline {table}{\numberline {3.1}{\ignorespaces Comparison between our results for compactnesses, C, and Love Number, $k_2$, and those of \cite  {[Hinderer]}. All values refer to $1.4M_{\odot }$ NS In this table we show results of the integration,reported against the values in the paper \cite  {[Hinderer]}.\relax }}{47}{table.caption.24}\protected@file@percent }
\newlabel{tab:pureeos}{{3.1}{47}{Comparison between our results for compactnesses, C, and Love Number, $k_2$, and those of \cite {[Hinderer]}. All values refer to $1.4\msun $ NS In this table we show results of the integration,reported against the values in the paper \cite {[Hinderer]}.\relax }{table.caption.24}{}}
\@writefile{toc}{\contentsline {section}{\numberline {3.1}Anisotrpoic Neutron Star Equilibrium Sequences}{47}{section.3.1}\protected@file@percent }
\newlabel{sec:aniso-NS-results}{{3.1}{47}{Anisotrpoic Neutron Star Equilibrium Sequences}{section.3.1}{}}
\@writefile{lof}{\contentsline {figure}{\numberline {3.2}{\ignorespaces NS sequences obtained with several values of the dimensionless parameter $\zeta $, for the FPS EoS. The compactness decreases as the parameter increases. We used the same values of anisotropy parameter proposed in \cite  {[Bose]}. \relax }}{48}{figure.caption.25}\protected@file@percent }
\newlabel{FPSaniso}{{3.2}{48}{NS sequences obtained with several values of the dimensionless parameter $\zeta $, for the FPS EoS. The compactness decreases as the parameter increases. We used the same values of anisotropy parameter proposed in \cite {[Bose]}. \relax }{figure.caption.25}{}}
\@writefile{lof}{\contentsline {figure}{\numberline {3.3}{\ignorespaces Same as \textit  {Fig}.~\ref  {FPSaniso}, but for the SLy EoS. \relax }}{48}{figure.caption.26}\protected@file@percent }
\newlabel{SLyaniso}{{3.3}{48}{Same as \textit {Fig}.~\ref {FPSaniso}, but for the SLy EoS. \relax }{figure.caption.26}{}}
\@writefile{lof}{\contentsline {figure}{\numberline {3.4}{\ignorespaces Same as \textit  {Fig}.~\ref  {FPSaniso}, but for the MS1 EoS. \relax }}{49}{figure.caption.27}\protected@file@percent }
\newlabel{MS1aniso}{{3.4}{49}{Same as \textit {Fig}.~\ref {FPSaniso}, but for the MS1 EoS. \relax }{figure.caption.27}{}}
\@writefile{lof}{\contentsline {figure}{\numberline {3.5}{\ignorespaces We show two EoS at different $\zeta $: SLy with $\zeta =+0.4$ and FPS with $\zeta =+2$. The two sequences are similar and overlap in certain points. \relax }}{50}{figure.caption.28}\protected@file@percent }
\newlabel{FPSvsSLy}{{3.5}{50}{We show two EoS at different $\zeta $: SLy with $\zeta =+0.4$ and FPS with $\zeta =+2$. The two sequences are similar and overlap in certain points. \relax }{figure.caption.28}{}}
\@writefile{lot}{\contentsline {table}{\numberline {3.2}{\ignorespaces Values of $\rm  {R}$, $\rm  {C}$, $k_2$, $\lambda $ for an NS at $1.4M_{\odot }$ mass and with the FPS EoS.\relax }}{50}{table.caption.29}\protected@file@percent }
\newlabel{tab:FPSaniso}{{3.2}{50}{Values of $\rm {R}$, $\rm {C}$, $k_2$, $\lambda $ for an NS at $1.4\msun $ mass and with the FPS EoS.\relax }{table.caption.29}{}}
\@writefile{lot}{\contentsline {table}{\numberline {3.3}{\ignorespaces Values of $\rm  {R}$, $\rm  {C}$, $k_2$, $\lambda $ for for an NS at $1.4M_{\odot }$ mass and with the Sly EoS.\relax }}{50}{table.caption.30}\protected@file@percent }
\newlabel{tab:SLyaniso}{{3.3}{50}{Values of $\rm {R}$, $\rm {C}$, $k_2$, $\lambda $ for for an NS at $1.4\msun $ mass and with the Sly EoS.\relax }{table.caption.30}{}}
\@writefile{lot}{\contentsline {table}{\numberline {3.4}{\ignorespaces Values of $\rm  {R}$, $\rm  {C}$, $k_2$, $\lambda $ for for an NS at $1.4M_{\odot }$ mass and with the MS1 EoS.\relax }}{51}{table.caption.31}\protected@file@percent }
\newlabel{tab:MS1aniso}{{3.4}{51}{Values of $\rm {R}$, $\rm {C}$, $k_2$, $\lambda $ for for an NS at $1.4\msun $ mass and with the MS1 EoS.\relax }{table.caption.31}{}}
\newlabel{linearreg}{{3.1}{51}{Anisotrpoic Neutron Star Equilibrium Sequences}{equation.3.1.1}{}}
\@writefile{lof}{\contentsline {figure}{\numberline {3.6}{\ignorespaces Linear regression for the maximum compactness of the EoSs FPS, SLy and MS1. On the vertical axis we report the compactness, on the horizontal axis we report the dimensionless parameter $\zeta $ \relax }}{51}{figure.caption.32}\protected@file@percent }
\newlabel{CMaxLinReg}{{3.6}{51}{Linear regression for the maximum compactness of the EoSs FPS, SLy and MS1. On the vertical axis we report the compactness, on the horizontal axis we report the dimensionless parameter $\zeta $ \relax }{figure.caption.32}{}}
\citation{[MDMstar01],[MDMstar00],[MDMstar02],[MDMstar03],[MDMstar04]}
\citation{[GW1]}
\citation{[GW3]}
\@writefile{lot}{\contentsline {table}{\numberline {3.5}{\ignorespaces Numerical values of $C_0$ and $S$ for the EoSs FPS, SLy and MS1.\relax }}{52}{table.caption.33}\protected@file@percent }
\newlabel{tab:bestfit}{{3.5}{52}{Numerical values of $C_0$ and $S$ for the EoSs FPS, SLy and MS1.\relax }{table.caption.33}{}}
\@writefile{toc}{\contentsline {section}{\numberline {3.2}Neutron Stars Containing Dark Matter}{52}{section.3.2}\protected@file@percent }
\newlabel{sec:MDM-NS-results}{{3.2}{52}{Neutron Stars Containing Dark Matter}{section.3.2}{}}
\citation{[MDMstar00]}
\@writefile{toc}{\contentsline {subsection}{\numberline {3.2.1}TOV Equations For Two Fluids}{53}{subsection.3.2.1}\protected@file@percent }
\newlabel{TOV2}{{3.2.1}{53}{TOV Equations For Two Fluids}{subsection.3.2.1}{}}
\newlabel{newp}{{3.3}{53}{TOV Equations For Two Fluids}{equation.3.2.3}{}}
\newlabel{neweps}{{3.4}{53}{TOV Equations For Two Fluids}{equation.3.2.4}{}}
\newlabel{ordpder}{{3.5}{53}{TOV Equations For Two Fluids}{equation.3.2.5}{}}
\newlabel{darkpder}{{3.6}{53}{TOV Equations For Two Fluids}{equation.3.2.6}{}}
\newlabel{ordmprime}{{3.7}{53}{TOV Equations For Two Fluids}{equation.3.2.7}{}}
\newlabel{darkmprime}{{3.8}{53}{TOV Equations For Two Fluids}{equation.3.2.8}{}}
\newlabel{totmass}{{3.9}{53}{TOV Equations For Two Fluids}{equation.3.2.9}{}}
\citation{[MDMstar04]}
\@writefile{toc}{\contentsline {subsection}{\numberline {3.2.2}The Dark Side of Neutron Stars}{54}{subsection.3.2.2}\protected@file@percent }
\newlabel{DMNS}{{3.2.2}{54}{The Dark Side of Neutron Stars}{subsection.3.2.2}{}}
\@writefile{lof}{\contentsline {figure}{\numberline {3.7}{\ignorespaces NS equilibrium sequences for the FPS EoS with various amounts of MDM. The legend indicates the percentage of dark mass in relation to the total mass. \relax }}{55}{figure.caption.34}\protected@file@percent }
\newlabel{FPSDM}{{3.7}{55}{NS equilibrium sequences for the FPS EoS with various amounts of MDM. The legend indicates the percentage of dark mass in relation to the total mass. \relax }{figure.caption.34}{}}
\@writefile{lof}{\contentsline {figure}{\numberline {3.8}{\ignorespaces Same as \textit  {Fig}.~\ref  {FPSDM}, but for the SLy EoS. \relax }}{55}{figure.caption.35}\protected@file@percent }
\newlabel{SLyDM}{{3.8}{55}{Same as \textit {Fig}.~\ref {FPSDM}, but for the SLy EoS. \relax }{figure.caption.35}{}}
\@writefile{lof}{\contentsline {figure}{\numberline {3.9}{\ignorespaces Same as \textit  {Fig}.~\ref  {FPSDM}, but for the MS1 EoS. \relax }}{56}{figure.caption.36}\protected@file@percent }
\newlabel{MS1DM}{{3.9}{56}{Same as \textit {Fig}.~\ref {FPSDM}, but for the MS1 EoS. \relax }{figure.caption.36}{}}
\@writefile{lot}{\contentsline {table}{\numberline {3.6}{\ignorespaces Numerical values of the radius $R$, compactness $C$, Love number $k_2$ and tidal deformability $\lambda $ for NS models with $M=1.1M_{\odot }$, built with the FPS EoS and various percentages of dark matter mass against the total mass. These are reported in the top row.\relax }}{56}{table.caption.37}\protected@file@percent }
\newlabel{tab:FPSdark}{{3.6}{56}{Numerical values of the radius $R$, compactness $C$, Love number $k_2$ and tidal deformability $\lambda $ for NS models with $M=1.1\msun $, built with the FPS EoS and various percentages of dark matter mass against the total mass. These are reported in the top row.\relax }{table.caption.37}{}}
\@writefile{lot}{\contentsline {table}{\numberline {3.7}{\ignorespaces Same as \textit  {Tab}.~\ref  {tab:FPSdark} but for the SLy EoS and a NS mass of $1.4M_{\odot }$.\relax }}{56}{table.caption.38}\protected@file@percent }
\newlabel{tab:SLydark}{{3.7}{56}{Same as \textit {Tab}.~\ref {tab:FPSdark} but for the SLy EoS and a NS mass of $1.4M_{\odot }$.\relax }{table.caption.38}{}}
\@writefile{lot}{\contentsline {table}{\numberline {3.8}{\ignorespaces Same as \textit  {Tab}.~\ref  {tab:SLydark} but for the MS1 EoS.\relax }}{57}{table.caption.39}\protected@file@percent }
\newlabel{tab:MS1dark}{{3.8}{57}{Same as \textit {Tab}.~\ref {tab:SLydark} but for the MS1 EoS.\relax }{table.caption.39}{}}
\@writefile{lof}{\contentsline {figure}{\numberline {3.10}{\ignorespaces The mass profile of a NS with $30\%$ of MDM. The EoS is SLy. \relax }}{57}{figure.caption.40}\protected@file@percent }
\newlabel{SLy30mass}{{3.10}{57}{The mass profile of a NS with $30\%$ of MDM. The EoS is SLy. \relax }{figure.caption.40}{}}
\@writefile{lof}{\contentsline {figure}{\numberline {3.11}{\ignorespaces The density profile of a NS with $30\%$ of MDM. The EoS is SLy. \relax }}{58}{figure.caption.41}\protected@file@percent }
\newlabel{SLy30dens}{{3.11}{58}{The density profile of a NS with $30\%$ of MDM. The EoS is SLy. \relax }{figure.caption.41}{}}
\@writefile{lof}{\contentsline {figure}{\numberline {3.12}{\ignorespaces The mass profile of a NS with $50\%$ of MDM. The EoS is SLy. \relax }}{58}{figure.caption.42}\protected@file@percent }
\newlabel{SLy50mass}{{3.12}{58}{The mass profile of a NS with $50\%$ of MDM. The EoS is SLy. \relax }{figure.caption.42}{}}
\@writefile{lof}{\contentsline {figure}{\numberline {3.13}{\ignorespaces The density profile of a NS with $50\%$ of MDM. The EoS is SLy. \relax }}{59}{figure.caption.43}\protected@file@percent }
\newlabel{SLy50dens}{{3.13}{59}{The density profile of a NS with $50\%$ of MDM. The EoS is SLy. \relax }{figure.caption.43}{}}
\@writefile{lof}{\contentsline {figure}{\numberline {3.14}{\ignorespaces The mass profile of a NS with $70\%$ of MDM. The EoS is SLy. \relax }}{59}{figure.caption.44}\protected@file@percent }
\newlabel{SLy70mass}{{3.14}{59}{The mass profile of a NS with $70\%$ of MDM. The EoS is SLy. \relax }{figure.caption.44}{}}
\citation{[GW1]}
\citation{[GW3]}
\citation{[GW1]}
\citation{[GW3]}
\citation{[GW1]}
\citation{[GW3]}
\@writefile{lof}{\contentsline {figure}{\numberline {3.15}{\ignorespaces The density profile of a NS with $70\%$ of MDM. The EoS is SLy. \relax }}{60}{figure.caption.45}\protected@file@percent }
\newlabel{SLy70dens}{{3.15}{60}{The density profile of a NS with $70\%$ of MDM. The EoS is SLy. \relax }{figure.caption.45}{}}
\@writefile{toc}{\contentsline {section}{\numberline {3.3}Comparisons to GW170817 and PSR J0348+0432}{60}{section.3.3}\protected@file@percent }
\newlabel{fenomenologico}{{3.3}{60}{Comparisons to GW170817 and PSR J0348+0432}{section.3.3}{}}
\citation{[GW3]}
\citation{[GW1]}
\citation{[GW1]}
\citation{[GW1]}
\@writefile{lot}{\contentsline {table}{\numberline {3.9}{\ignorespaces Values of $\Lambda $ for $1.4\tmspace  +\thinmuskip {.1667em}M_\odot $ NS models built with the the FPS, SLy and MS1 EoSs and 5 different values of the anisotropy parameter. We highlight configurations that are in agreement with both GW170817 and PSR J0348+0432 with bold characters.\relax }}{61}{table.caption.46}\protected@file@percent }
\newlabel{tab:adimlamaniso}{{3.9}{61}{Values of $\Lambda $ for $1.4\,M_\odot $ NS models built with the the FPS, SLy and MS1 EoSs and 5 different values of the anisotropy parameter. We highlight configurations that are in agreement with both GW170817 and PSR J0348+0432 with bold characters.\relax }{table.caption.46}{}}
\@writefile{lot}{\contentsline {table}{\numberline {3.10}{\ignorespaces Same as \textit  {Tab.}~\ref  {tab:adimlamaniso} but this time we vary the amount of MDM instead of the pressure anisotropy. We omit FPS since the presence of MDM only lowers the maximum NS mass thus violating the PSR J0348+0432 mass constraint (see \textit  {Fig.}~\ref  {FPSDM})\relax }}{61}{table.caption.47}\protected@file@percent }
\newlabel{tab:adimlam}{{3.10}{61}{Same as \textit {Tab.}~\ref {tab:adimlamaniso} but this time we vary the amount of MDM instead of the pressure anisotropy. We omit FPS since the presence of MDM only lowers the maximum NS mass thus violating the PSR J0348+0432 mass constraint (see \textit {Fig.}~\ref {FPSDM})\relax }{table.caption.47}{}}
\@writefile{lof}{\contentsline {figure}{\numberline {3.16}{\ignorespaces Various curve in the $\Lambda _1$-$\Lambda _2$ plane for some EoS-$\zeta $ and EoS-MDM configurations that satisfy the constraint of both GW170817 and PSR J0348+0432. The background is the two-dimensional posterior distribution from GW170817 \cite  {[GW1]}, with the dashed white line enclosing the $90\%$ redible region of such posterior. The colored curves are obtained by constructing the interpolating function $\Lambda (m)$ for each scenario, where $m$ is the NS gravitational mass, and then running this interpolating function on the component mass posterior of GW170817. Data for the GW170817 event is obtained from \burl  {http://gw-openscience.org}. \relax }}{63}{figure.caption.48}\protected@file@percent }
\newlabel{lamblambBoth}{{3.16}{63}{Various curve in the $\Lambda _1$-$\Lambda _2$ plane for some EoS-$\zeta $ and EoS-MDM configurations that satisfy the constraint of both GW170817 and PSR J0348+0432. The background is the two-dimensional posterior distribution from GW170817 \cite {[GW1]}, with the dashed white line enclosing the $90\%$ redible region of such posterior. The colored curves are obtained by constructing the interpolating function $\Lambda (m)$ for each scenario, where $m$ is the NS gravitational mass, and then running this interpolating function on the component mass posterior of GW170817. Data for the GW170817 event is obtained from \burl {http://gw-openscience.org}. \relax }{figure.caption.48}{}}
\citation{[univ01],[univ02]}
\citation{[universal]}
\@writefile{lof}{\contentsline {figure}{\numberline {3.17}{\ignorespaces A zoomed-in verion of \textit  {Fig.}~\ref  {lamblambBoth}. \relax }}{64}{figure.caption.49}\protected@file@percent }
\newlabel{lamblambBothZoom}{{3.17}{64}{A zoomed-in verion of \textit {Fig.}~\ref {lamblambBoth}. \relax }{figure.caption.49}{}}
\@writefile{toc}{\contentsline {section}{\numberline {3.4}$C$--$\Lambda $ Universal Relation}{64}{section.3.4}\protected@file@percent }
\newlabel{universale}{{3.4}{64}{$C$--$\Lambda $ Universal Relation}{section.3.4}{}}
\newlabel{clamb}{{3.11}{64}{$C$--$\Lambda $ Universal Relation}{equation.3.4.11}{}}
\citation{[universal]}
\citation{[universal]}
\citation{[universal]}
\citation{[universal]}
\@writefile{lof}{\contentsline {figure}{\numberline {3.18}{\ignorespaces Deviation with respect to the universal relation in Eq.\tmspace  +\thinmuskip {.1667em}(\ref  {clamb}) of the compactness as a function of tidal deformability for NS models with mass greater than $1.2\tmspace  +\thinmuskip {.1667em}M_{\odot }$ in the scenario with pressure anisotropy and using the FPS EoS. The black dot-dashed line marks the $2\tmspace  +\thinmuskip {.1667em}\%$ error quoted in \cite  {[universal]} for the universal relation. \relax }}{65}{figure.caption.50}\protected@file@percent }
\newlabel{FPSanisouniv}{{3.18}{65}{Deviation with respect to the universal relation in Eq.\,(\ref {clamb}) of the compactness as a function of tidal deformability for NS models with mass greater than $1.2\,\msun $ in the scenario with pressure anisotropy and using the FPS EoS. The black dot-dashed line marks the $2\,\%$ error quoted in \cite {[universal]} for the universal relation. \relax }{figure.caption.50}{}}
\@writefile{lof}{\contentsline {figure}{\numberline {3.19}{\ignorespaces Same as \ref  {FPSanisouniv} but for the SLy EoS. \relax }}{66}{figure.caption.51}\protected@file@percent }
\newlabel{SLyanisouniv}{{3.19}{66}{Same as \ref {FPSanisouniv} but for the SLy EoS. \relax }{figure.caption.51}{}}
\@writefile{lof}{\contentsline {figure}{\numberline {3.20}{\ignorespaces Same as \ref  {SLyanisouniv} but in the MDM scenario. \relax }}{67}{figure.caption.52}\protected@file@percent }
\newlabel{SLyDMuniv}{{3.20}{67}{Same as \ref {SLyanisouniv} but in the MDM scenario. \relax }{figure.caption.52}{}}
\@writefile{lof}{\contentsline {figure}{\numberline {3.21}{\ignorespaces Same as \ref  {SLyanisouniv} but for the MS1 EoS. \relax }}{67}{figure.caption.53}\protected@file@percent }
\newlabel{MS1DMuniv}{{3.21}{67}{Same as \ref {SLyanisouniv} but for the MS1 EoS. \relax }{figure.caption.53}{}}
\@writefile{toc}{\contentsline {chapter}{Conclusions}{68}{chapter*.54}\protected@file@percent }
\citation{[xAct]}
\citation{[xAct]}
\@writefile{toc}{\contentsline {chapter}{\numberline {A}Code Structure}{70}{appendix.A}\protected@file@percent }
\@writefile{lof}{\addvspace {10\p@ }}
\@writefile{lot}{\addvspace {10\p@ }}
\newlabel{appendixa}{{A}{70}{Code Structure}{appendix.A}{}}
\@writefile{toc}{\contentsline {section}{\numberline {A.1}A Mathematica Package for Tensor Calculus}{70}{section.A.1}\protected@file@percent }
\@writefile{toc}{\contentsline {section}{\numberline {A.2}TOV solver in Mathematica}{71}{section.A.2}\protected@file@percent }
\@writefile{toc}{\contentsline {subsection}{\numberline {A.2.1}Relativistic Stellar Structure Equations}{72}{subsection.A.2.1}\protected@file@percent }
\newlabel{tovmprime}{{A.1}{72}{Relativistic Stellar Structure Equations}{equation.A.2.1}{}}
\newlabel{tovpprime}{{A.2}{72}{Relativistic Stellar Structure Equations}{equation.A.2.2}{}}
\newlabel{tovpt}{{A.3}{72}{Relativistic Stellar Structure Equations}{equation.A.2.3}{}}
\newlabel{dzetadr}{{A.4}{72}{Relativistic Stellar Structure Equations}{equation.A.2.4}{}}
\newlabel{drdzeta}{{A.6}{72}{Relativistic Stellar Structure Equations}{equation.A.2.6}{}}
\@writefile{toc}{\contentsline {subsection}{\numberline {A.2.2}Initial values}{72}{subsection.A.2.2}\protected@file@percent }
\@writefile{toc}{\contentsline {subsection}{\numberline {A.2.3}The dimensionless version}{74}{subsection.A.2.3}\protected@file@percent }
\newlabel{scalate}{{A.13}{74}{The dimensionless version}{equation.A.2.13}{}}
\newlabel{adimtov}{{A.14}{74}{The dimensionless version}{equation.A.2.14}{}}
\newlabel{lnpadim}{{A.15}{74}{The dimensionless version}{equation.A.2.15}{}}
\@writefile{toc}{\contentsline {chapter}{\numberline {B}Code Validation: the Fluid Species Exchange Symmetry}{75}{appendix.B}\protected@file@percent }
\@writefile{lof}{\addvspace {10\p@ }}
\@writefile{lot}{\addvspace {10\p@ }}
\newlabel{appendixb}{{B}{75}{Code Validation: the Fluid Species Exchange Symmetry}{appendix.B}{}}
\newlabel{err}{{B.1}{75}{Code Validation: the Fluid Species Exchange Symmetry}{equation.B.0.1}{}}
\@writefile{lof}{\contentsline {figure}{\numberline {B.1}{\ignorespaces Equilibrium sequences for the FPS with MDM. The configurations with more than 50\% of MDM are dot-dashed and plotted with the complementary colour for visual clarity. \relax }}{76}{figure.caption.55}\protected@file@percent }
\newlabel{AllFPS}{{B.1}{76}{Equilibrium sequences for the FPS with MDM. The configurations with more than 50\% of MDM are dot-dashed and plotted with the complementary colour for visual clarity. \relax }{figure.caption.55}{}}
\@writefile{lof}{\contentsline {figure}{\numberline {B.2}{\ignorespaces Same as \textit  {Fig.}~\ref  {AllFPS} but for the SLy EoS. \relax }}{76}{figure.caption.56}\protected@file@percent }
\newlabel{AllSLy}{{B.2}{76}{Same as \textit {Fig.}~\ref {AllFPS} but for the SLy EoS. \relax }{figure.caption.56}{}}
\@writefile{lof}{\contentsline {figure}{\numberline {B.3}{\ignorespaces Same as \textit  {Fig.}~\ref  {AllFPS} but for the MS1 EoS. \relax }}{77}{figure.caption.57}\protected@file@percent }
\newlabel{AllMS1}{{B.3}{77}{Same as \textit {Fig.}~\ref {AllFPS} but for the MS1 EoS. \relax }{figure.caption.57}{}}
\@writefile{lot}{\contentsline {table}{\numberline {B.1}{\ignorespaces Numerical values for the quantity defined in Eq.\tmspace  +\thinmuskip {.1667em}(\ref  {err}) calculated for the radius $R$, compactness $C$, Love number $k_2$ and tidal deformability $\lambda $ of a $1.1M_{\odot }$ NS for the FPS EoS. The symmetric pairs of MDM considered are indicated in the header of the table.\relax }}{77}{table.caption.58}\protected@file@percent }
\newlabel{tab:totalFPSdark}{{B.1}{77}{Numerical values for the quantity defined in Eq.\,(\ref {err}) calculated for the radius $R$, compactness $C$, Love number $k_2$ and tidal deformability $\lambda $ of a $1.1\msun $ NS for the FPS EoS. The symmetric pairs of MDM considered are indicated in the header of the table.\relax }{table.caption.58}{}}
\@writefile{lot}{\contentsline {table}{\numberline {B.2}{\ignorespaces Same as \textit  {Tab.}~\ref  {tab:totalFPSdark} but for a $1.4M_{\odot }$ NS built with the SLy EoS.\relax }}{77}{table.caption.59}\protected@file@percent }
\newlabel{tab:totalSLydark}{{B.2}{77}{Same as \textit {Tab.}~\ref {tab:totalFPSdark} but for a $1.4\msun $ NS built with the SLy EoS.\relax }{table.caption.59}{}}
\bibdata{BiB}
\@writefile{lot}{\contentsline {table}{\numberline {B.3}{\ignorespaces Same as \textit  {Tab.}~\ref  {tab:totalSLydark} but for the MS1 EoS.\relax }}{78}{table.caption.60}\protected@file@percent }
\newlabel{tab:totalMS1dark}{{B.3}{78}{Same as \textit {Tab.}~\ref {tab:totalSLydark} but for the MS1 EoS.\relax }{table.caption.60}{}}
\@writefile{toc}{\contentsline {chapter}{Bibliography}{78}{table.caption.60}\protected@file@percent }
\bibcite{[GW1]}{1}
\bibcite{[GW3]}{2}
\bibcite{Fattoyev:2017jql}{3}
\bibcite{Kumar:2019xgp}{4}
\bibcite{FlanaganHinderer}{5}
\bibcite{[fatpulsar]}{6}
\bibcite{[universal]}{7}
\bibcite{[Ein01]}{8}
\bibcite{[Dyson01]}{9}
\bibcite{[Pulsar]}{10}
\bibcite{GW150914}{11}
\bibcite{AdvLIGO}{12}
\bibcite{AdvVirgo}{13}
\bibcite{[GRB1]}{14}
\bibcite{[GRB2]}{15}
\bibcite{[multymess]}{16}
\bibcite{[eos01]}{17}
\bibcite{[GW3_13]}{18}
\bibcite{[pani01]}{19}
\bibcite{[bosonstar01]}{20}
\bibcite{[bosonstar02]}{21}
\bibcite{[axionstar]}{22}
\bibcite{[darkstar01]}{23}
\bibcite{[darkstar02]}{24}
\bibcite{[grava01]}{25}
\bibcite{[grava02]}{26}
\bibcite{[Hinderer]}{27}
\bibcite{Rosswog:2007zz}{28}
\bibcite{[PP]}{29}
\bibcite{[CNO]}{30}
\bibcite{[struttura]}{31}
\bibcite{Binnington:2009bb}{32}
\bibcite{[pulsar1]}{33}
\bibcite{[Tolman]}{34}
\bibcite{[Opp]}{35}
\bibcite{[Hinderer2]}{36}
\bibcite{[Bose]}{37}
\bibcite{[Bose17]}{38}
\bibcite{[Bose10]}{39}
\bibcite{[Bose12]}{40}
\bibcite{[Bose13]}{41}
\bibcite{[Bose14]}{42}
\bibcite{[Bose22]}{43}
\bibcite{[Ford]}{44}
\bibcite{[Freeman]}{45}
\bibcite{[Curva]}{46}
\bibcite{[Coma00]}{47}
\bibcite{[Bullet00]}{48}
\bibcite{[Bullet02]}{49}
\bibcite{[Bullet02-00]}{50}
\bibcite{[macho00]}{51}
\bibcite{[macho01]}{52}
\bibcite{[wimp00]}{53}
\bibcite{[susy00]}{54}
\bibcite{[susy01]}{55}
\bibcite{[axion00]}{56}
\bibcite{[MDM00]}{57}
\bibcite{[MDM01]}{58}
\bibcite{[LeeYang]}{59}
\bibcite{[Temp00]}{60}
\bibcite{[Temp01]}{61}
\bibcite{[bambi]}{62}
\bibcite{[Temp02]}{63}
\bibcite{[infla00]}{64}
\bibcite{[foot00226]}{65}
\bibcite{[bachall]}{66}
\bibcite{[CMB00]}{67}
\bibcite{[WMAP]}{68}
\bibcite{[ACBAR]}{69}
\bibcite{[2dF]}{70}
\bibcite{[bondihoyle00]}{71}
\bibcite{[bondihoyle01]}{72}
\bibcite{[MDMstar01]}{73}
\bibcite{[acc00]}{74}
\bibcite{SLypaper}{75}
\bibcite{FPSpaper}{76}
\bibcite{MS1paper}{77}
\bibcite{[MassiveNS]}{78}
\bibcite{[MDMstar00]}{79}
\bibcite{[MDMstar02]}{80}
\bibcite{[MDMstar03]}{81}
\bibcite{[MDMstar04]}{82}
\bibcite{[univ01]}{83}
\bibcite{[univ02]}{84}
\bibcite{[xAct]}{85}
\bibstyle{unsrt}
\@writefile{toc}{\contentsline {chapter}{Ringraziamenti}{85}{appendix*.62}\protected@file@percent }
