10.701189050563471	1.018985710755976
11.380512964929567	1.0457125490578765
12.153919741958463	1.105623585297254
13.092380100472683	1.1484652238210753
14.197436633606685	1.2002511073212885
15.515217111291344	1.250319949528575
17.02032706309028	1.3482322908836504
18.78965518558547	1.4663742576944983
20.902194790734537	1.590509552460015
23.443620667073077	1.7155284568095484
26.49897895246625	1.8481434474375984
30.179728911795184	1.9928700440495766
34.58434643510759	2.168597634939713
39.82760804110418	2.3918454742546613
46.217460083670865	2.6285976605769723
54.199514681720196	2.8443513504593025
64.06308448287426	3.071435093037907
76.20025270131012	3.3282653949215
91.19154700041436	3.621281030783438
109.79838970558627	3.945057224764813
133.33508675618313	4.270184180035502
163.41148939774132	4.581684441233858
201.8140574112281	4.899525817877082
250.6349847796527	5.247184790851499
312.7875115948291	5.635032914073428
392.5058303504496	6.045800983682358
497.4041965570628	6.423473032052884
635.0829153088564	6.77979607288223
816.9180371934135	7.127879593213684
1052.604005278369	7.529662224613336
1360.2527566795688	7.970678959964114
1776.663916324777	8.3384442017245
2337.622969753277	8.648132641212031
3091.102066089934	8.947216720498297
4094.275434831807	9.291779563343743
5425.364595774499	9.664635599171072
7235.939111530018	9.978238128022657
9764.581190443943	10.15377140917094
13235.08956002097	10.261928320756141
17946.94972796237	10.369580083496027
24318.440088174993	10.52221871346464
33093.258637168976	10.634165178071028
45404.19118937655	10.55769348789613
62576.1215245433	10.362020912510781
86141.6859775967	10.18465533224242
118939.98446677471	9.969379108436613
164222.72561038838	9.716013114345602
228764.31734255716	9.186034748255853
320149.7041863706	8.483224759180006
445910.731567652	7.874881937235504
622540.9707001122	7.241112521944985