6.977761331993732	1.2893071657920228
7.052051550924274	1.2883322609753152
7.126621094635873	1.2854660431413922
7.200367832764823	1.2806826974576668
7.273443571496171	1.2738729588576105
7.345366673108579	1.264955089609263
7.415455285158527	1.2539135721600811
7.484034496722092	1.2406271643500648
7.5500274715969695	1.2251486699874052
7.61357274247772	1.2074650379450003
7.674490085029652	1.187562595795335
7.732027150762276	1.1655570876767984
7.786657923399382	1.141463464247372
7.837680946598558	1.1154121240171595
7.8850648361791045	1.0874373222274794
7.929283615153919	1.0576381208329309
7.969907598563562	1.026352631990193
8.007287291439066	0.9936222391377638
8.041424532984697	0.959656153860705
8.072101764391752	0.924582366055074
8.10009705896898	0.8885700733733702
8.1251894389399	0.8520191617862396
8.147609996156334	0.8149251966485984
8.168332192719962	0.7775301091676506
8.187405993513499	0.7401181937857825
8.205385582147958	0.702883355569167
8.223299085396526	0.666320463887114
8.24124252038607	0.6306198713708774
8.259517532757926	0.5956231342893094
8.278554021701266	0.561489837257093
8.29856061570759	0.5282723280771409
8.320923337725247	0.49586007908938323
8.346973867112828	0.4646503936819266
8.377747200150312	0.4347275583316547
8.414937840294453	0.40600378402721893
8.459640108120837	0.3787928950007407
8.512765624570623	0.3530678700538363
8.576431053232616	0.3287255465260863
8.652850905668904	0.3057282766405531
8.74520059905836	0.2838918062157684
8.858021956223238	0.26313234775700534
8.995044460163752	0.243612008520323
9.161530766541494	0.22527371916440125
9.364221445958865	0.20809481533286314
9.610626441418836	0.19211708036687827
9.912012700912513	0.17720799651165572
10.284545840037701	0.16330384344515544
10.744709712537633	0.15046589512580916
11.321045017488295	0.13857808386968382