6.804205602115599	0.2908605832049775
6.640052435596549	0.2925218405010222
6.558658256617048	0.2938110736340435
6.510662163218929	0.29469090256610675
6.505802288999054	0.2951231074567853
6.590135946946946	0.2950753073808161
6.743377851516379	0.2945191348492319
6.96497063702294	0.29340747445633836
7.424411818658111	0.29171810968022016
7.947462119522681	0.2894171227323084
8.647354183483086	0.2864813082899461
9.545108161217325	0.2828858612679912
10.841908352805728	0.27860894080381543
12.436393851098007	0.27362911648910604
14.650262692562025	0.26795451237876294
17.394336684721463	0.26158638806474693
21.47338213179762	0.2545251116085847
27.133193812474097	0.24681477313608807
33.542415714691316	0.23847138030961207
44.7502534141014	0.22959560491605868
58.98916086706144	0.22018449742535276
79.68372479973871	0.21040566125383295
107.81850098966164	0.20027030034511986
155.8861834423359	0.18993434236621506
220.1878264901676	0.17945694349143693
314.2845446205731	0.16899521088376676
462.41999171344224	0.15859013233023087
702.373393568587	0.14834286156676044
1034.1861749429145	0.13838621448770017
1544.9594628651694	0.12870141360741474
2320.726178753417	0.11935366867647772
3572.472185928793	0.11043815743679743
5438.264776815038	0.10191695525468586
8468.30503768343	0.09376163394222717
12922.159408947056	0.08605160654065704
19831.1295223773	0.07875593294458781
31402.085198197892	0.0718082210464017
49346.70044569657	0.06517036976640386
78935.66529218557	0.05893058620780184
126955.03598456204	0.05303579748092057
202536.02490461516	0.04740743277591074
329154.1886868716	0.04197635885580191
566011.3643219752	0.03679549063601413
966795.3955483513	0.03197859837715959
1.660572886454913e6	0.027496884076067336
3.005241078522441e6	0.023283132745854432
5.472871138529237e6	0.019283722987326564
1.0375903928930478e7	0.01570779829435
1.995497169794364e7	0.012574493788231956
4.09964230020206e7	0.009849496553347692
9.258443205319375e7	0.007500773849695138