7.5621012288615335	1.4700325427807814
7.642766509888714	1.469198313093498
7.722999684546007	1.466551091529491
7.802687751816564	1.4620069110975875
7.881457835748835	1.4554851919035425
7.9591216196491015	1.4469194574711923
8.035289833463352	1.4362602687167252
8.109766578039865	1.423454918507034
8.182377071180593	1.4084746952596874
8.2527176410026	1.3913243455471453
8.320717798005049	1.3720003632317752
8.385971350814676	1.3505185724670157
8.448526576526161	1.3269482756296485
8.508005301749307	1.3013269962232823
8.564327211573827	1.273746680336118
8.617438720088009	1.2443264190187622
8.667064066042858	1.2131406446348758
8.71332631360061	1.180393198445613
8.756239659500627	1.1461380950521682
8.795492795635951	1.1106573126459718
8.831484057810046	1.0739993798558332
8.864125859180795	1.036442830342912
8.893634128074392	0.9981743031713272
8.920354253430446	0.9592458157714062
8.944165465699001	0.920097681832056
8.965452500242643	0.8807008163881138
8.984984306222234	0.8412635514797474
9.002674151611183	0.8021686993139947
9.018742182998807	0.7633407112078808
9.034537222935251	0.7249638461700194
9.050059868084679	0.6874141073619113
9.065643824162358	0.6506427052769549
9.082184186053901	0.6146586708786448
9.101436318686519	0.5797714530066074
9.12293667978644	0.5461019730010327
9.147402846633364	0.513548415859302
9.1765361237914	0.482178686466877
9.212671451596341	0.452151861245444
9.255384289368568	0.42352237154424266
9.305838608116895	0.3962305576210386
9.365325095808652	0.370193799081478
9.437393045871366	0.34559330520752285
9.5244968064503	0.32234066281614754
9.628079133789186	0.3004186197722338
9.749155271381012	0.2797971102153685
9.89142412915958	0.2603556879435532
10.059958662023504	0.24221052483278793
10.259129201289975	0.2253190359148884
10.495795397925741	0.20955561337666626
10.777106039469233	0.19483583261974705